Web-scraping UEFA Champions League Data - DataXotic
…
      project
      UEFA Champions League

      Exploratory Data Analysis

        The UEFA Champions League is an annual football competition established in 1955 by the Union of European Football Associations (UEFA).

The league features champions of all UEFA member associations, current title holders of the tournament, and clubs finishing from second to fourth position in the strongest leagues. There has been a total of 67 tournament seasons from the inaugural to the latest edition of the tournament. Documented details of the tournament seasons are available online from the official website, Wikipedia and other sources. We consider the data on the UEFA champions league finals that is available from Wikipedia.

Pre-processing:

We first scraped the UEFA champions league data from the Wikipedia website, did a thorough cleaning of the data and lastly performed an exploratory data analysis (EDA) on the dataset. The entire procedure was accomplished using a couple of R add-on libraries. We used the rvest library for scraping, stringr for editing, data.table for melting, magrittr for piping, dplyr for manipulating, ggplot2 for plotting and ggthemes for styling. The first ten rows of the retrieved data are shown in the table below, also with a tidy and complete table available at the link given below the table.

# A tibble: 67 x 10
---------------------------------------------------------------------------------- Winners ----- Fulltime --------------- Runners-up -------
   Season     Venue                                      Attendance    Winners     country        score     Runners-up     Country                 
--------------------------------------------------------------------------------------------------------------------------------------------            
1  1955–56    Parc des Princes, Paris, France                38239      ESP       Real Madrid      4–3          FRA        Reims                   
2  1956–57    Santiago Bernabéu, Madrid, Spain              124000      ESP       Real Madrid      2–0          ITA        Fiorentina                 
3  1957–58    Heysel Stadium, Brussels, Belgium              67000      ESP       Real Madrid      3–2          ITA        Milan                        
4  1958–59    Neckarstadion, Stuttgart, West Germany         72000      ESP       Real Madrid      2–0          FRA        Reims                      
5  1959–60    Hampden Park, Glasgow, Scotland               127621      ESP       Real Madrid      7–3          GER        Eintracht Frankfurt             
6  1960–61    Wankdorf Stadium, Bern, Switzerland            26732      POR       Benfica          3–2          ESP        Barcelona                   
7  1961–62    Olympisch Stadion, Amsterdam, Netherlands      61257      POR       Benfica          5–3          ESP        Real Madrid                  
8  1962–63    Wembley Stadium, London, England               45715      ITA       Milan            2–1          POR        Benfica                     
9  1963–64    Praterstadion, Vienna, Austria                 71333      ITA       Inter Milan      3–1          ESP        Real Madrid                 
10 1964–65    San Siro, Milan, Italy                         89000      ITA       Inter Milan      1–0          POR        Benfica                     
# ... with 57 more rows
…
